-- Merging decision tree log ---
manifest
ADDED from /home/jpereira/Projetos Android/android-BluetoothChat/Application/src/main/AndroidManifest.xml:18:1-53:12
	package
		ADDED from /home/jpereira/Projetos Android/android-BluetoothChat/Application/src/main/AndroidManifest.xml:19:5-48
	android:versionName
		ADDED from /home/jpereira/Projetos Android/android-BluetoothChat/Application/src/main/AndroidManifest.xml:22:5-30
		INJECTED from /home/jpereira/Projetos Android/android-BluetoothChat/Application/src/main/AndroidManifest.xml
		INJECTED from /home/jpereira/Projetos Android/android-BluetoothChat/Application/src/main/AndroidManifest.xml
	android:versionCode
		ADDED from /home/jpereira/Projetos Android/android-BluetoothChat/Application/src/main/AndroidManifest.xml:21:5-28
		INJECTED from /home/jpereira/Projetos Android/android-BluetoothChat/Application/src/main/AndroidManifest.xml
		INJECTED from /home/jpereira/Projetos Android/android-BluetoothChat/Application/src/main/AndroidManifest.xml
	xmlns:android
		ADDED from /home/jpereira/Projetos Android/android-BluetoothChat/Application/src/main/AndroidManifest.xml:20:5-63
uses-permission#android.permission.BLUETOOTH_ADMIN
ADDED from /home/jpereira/Projetos Android/android-BluetoothChat/Application/src/main/AndroidManifest.xml:26:5-73
	android:name
		ADDED from /home/jpereira/Projetos Android/android-BluetoothChat/Application/src/main/AndroidManifest.xml:26:22-71
uses-permission#android.permission.BLUETOOTH
ADDED from /home/jpereira/Projetos Android/android-BluetoothChat/Application/src/main/AndroidManifest.xml:27:5-67
	android:name
		ADDED from /home/jpereira/Projetos Android/android-BluetoothChat/Application/src/main/AndroidManifest.xml:27:22-65
application
ADDED from /home/jpereira/Projetos Android/android-BluetoothChat/Application/src/main/AndroidManifest.xml:29:5-51:19
MERGED from [com.android.support:gridlayout-v7:25.3.1] /home/jpereira/Projetos Android/android-BluetoothChat/Application/build/intermediates/exploded-aar/com.android.support/gridlayout-v7/25.3.1/AndroidManifest.xml:26:5-20
MERGED from [com.android.support:cardview-v7:25.3.1] /home/jpereira/Projetos Android/android-BluetoothChat/Application/build/intermediates/exploded-aar/com.android.support/cardview-v7/25.3.1/AndroidManifest.xml:26:5-20
MERGED from [com.android.support:appcompat-v7:25.3.1] /home/jpereira/Projetos Android/android-BluetoothChat/Application/build/intermediates/exploded-aar/com.android.support/appcompat-v7/25.3.1/AndroidManifest.xml:29:5-20
MERGED from [com.android.support:support-v4:25.3.1] /home/jpereira/Projetos Android/android-BluetoothChat/Application/build/intermediates/exploded-aar/com.android.support/support-v4/25.3.1/AndroidManifest.xml:29:5-20
MERGED from [com.android.support:support-fragment:25.3.1] /home/jpereira/Projetos Android/android-BluetoothChat/Application/build/intermediates/exploded-aar/com.android.support/support-fragment/25.3.1/AndroidManifest.xml:29:5-20
MERGED from [com.android.support:support-media-compat:25.3.1] /home/jpereira/Projetos Android/android-BluetoothChat/Application/build/intermediates/exploded-aar/com.android.support/support-media-compat/25.3.1/AndroidManifest.xml:29:5-20
MERGED from [com.android.support:support-core-ui:25.3.1] /home/jpereira/Projetos Android/android-BluetoothChat/Application/build/intermediates/exploded-aar/com.android.support/support-core-ui/25.3.1/AndroidManifest.xml:29:5-20
MERGED from [com.android.support:support-core-utils:25.3.1] /home/jpereira/Projetos Android/android-BluetoothChat/Application/build/intermediates/exploded-aar/com.android.support/support-core-utils/25.3.1/AndroidManifest.xml:29:5-20
MERGED from [com.android.support:animated-vector-drawable:25.3.1] /home/jpereira/Projetos Android/android-BluetoothChat/Application/build/intermediates/exploded-aar/com.android.support/animated-vector-drawable/25.3.1/AndroidManifest.xml:26:5-20
MERGED from [com.android.support:support-vector-drawable:25.3.1] /home/jpereira/Projetos Android/android-BluetoothChat/Application/build/intermediates/exploded-aar/com.android.support/support-vector-drawable/25.3.1/AndroidManifest.xml:26:5-20
MERGED from [com.android.support:support-compat:25.3.1] /home/jpereira/Projetos Android/android-BluetoothChat/Application/build/intermediates/exploded-aar/com.android.support/support-compat/25.3.1/AndroidManifest.xml:29:5-20
	android:label
		ADDED from /home/jpereira/Projetos Android/android-BluetoothChat/Application/src/main/AndroidManifest.xml:32:9-41
	android:allowBackup
		ADDED from /home/jpereira/Projetos Android/android-BluetoothChat/Application/src/main/AndroidManifest.xml:30:9-35
	android:icon
		ADDED from /home/jpereira/Projetos Android/android-BluetoothChat/Application/src/main/AndroidManifest.xml:31:9-45
	android:theme
		ADDED from /home/jpereira/Projetos Android/android-BluetoothChat/Application/src/main/AndroidManifest.xml:33:9-40
activity#com.example.android.bluetoothchat.MainActivity
ADDED from /home/jpereira/Projetos Android/android-BluetoothChat/Application/src/main/AndroidManifest.xml:35:9-43:20
	android:label
		ADDED from /home/jpereira/Projetos Android/android-BluetoothChat/Application/src/main/AndroidManifest.xml:38:13-45
	android:configChanges
		ADDED from /home/jpereira/Projetos Android/android-BluetoothChat/Application/src/main/AndroidManifest.xml:37:13-63
	android:name
		ADDED from /home/jpereira/Projetos Android/android-BluetoothChat/Application/src/main/AndroidManifest.xml:36:13-41
intent-filter#android.intent.action.MAIN+android.intent.category.LAUNCHER
ADDED from /home/jpereira/Projetos Android/android-BluetoothChat/Application/src/main/AndroidManifest.xml:39:13-42:29
action#android.intent.action.MAIN
ADDED from /home/jpereira/Projetos Android/android-BluetoothChat/Application/src/main/AndroidManifest.xml:40:17-68
	android:name
		ADDED from /home/jpereira/Projetos Android/android-BluetoothChat/Application/src/main/AndroidManifest.xml:40:25-66
category#android.intent.category.LAUNCHER
ADDED from /home/jpereira/Projetos Android/android-BluetoothChat/Application/src/main/AndroidManifest.xml:41:17-76
	android:name
		ADDED from /home/jpereira/Projetos Android/android-BluetoothChat/Application/src/main/AndroidManifest.xml:41:27-74
activity#com.example.android.bluetoothchat.DeviceListActivity
ADDED from /home/jpereira/Projetos Android/android-BluetoothChat/Application/src/main/AndroidManifest.xml:45:9-49:63
	android:label
		ADDED from /home/jpereira/Projetos Android/android-BluetoothChat/Application/src/main/AndroidManifest.xml:48:13-50
	android:configChanges
		ADDED from /home/jpereira/Projetos Android/android-BluetoothChat/Application/src/main/AndroidManifest.xml:47:13-63
	android:theme
		ADDED from /home/jpereira/Projetos Android/android-BluetoothChat/Application/src/main/AndroidManifest.xml:49:13-61
	android:name
		ADDED from /home/jpereira/Projetos Android/android-BluetoothChat/Application/src/main/AndroidManifest.xml:46:13-47
uses-sdk
INJECTED from /home/jpereira/Projetos Android/android-BluetoothChat/Application/src/main/AndroidManifest.xml reason: use-sdk injection requested
MERGED from [com.android.support:gridlayout-v7:25.3.1] /home/jpereira/Projetos Android/android-BluetoothChat/Application/build/intermediates/exploded-aar/com.android.support/gridlayout-v7/25.3.1/AndroidManifest.xml:20:5-43
MERGED from [com.android.support:cardview-v7:25.3.1] /home/jpereira/Projetos Android/android-BluetoothChat/Application/build/intermediates/exploded-aar/com.android.support/cardview-v7/25.3.1/AndroidManifest.xml:20:5-43
MERGED from [com.android.support:appcompat-v7:25.3.1] /home/jpereira/Projetos Android/android-BluetoothChat/Application/build/intermediates/exploded-aar/com.android.support/appcompat-v7/25.3.1/AndroidManifest.xml:21:5-23:78
MERGED from [com.android.support:support-v4:25.3.1] /home/jpereira/Projetos Android/android-BluetoothChat/Application/build/intermediates/exploded-aar/com.android.support/support-v4/25.3.1/AndroidManifest.xml:21:5-23:54
MERGED from [com.android.support:support-fragment:25.3.1] /home/jpereira/Projetos Android/android-BluetoothChat/Application/build/intermediates/exploded-aar/com.android.support/support-fragment/25.3.1/AndroidManifest.xml:21:5-23:60
MERGED from [com.android.support:support-media-compat:25.3.1] /home/jpereira/Projetos Android/android-BluetoothChat/Application/build/intermediates/exploded-aar/com.android.support/support-media-compat/25.3.1/AndroidManifest.xml:21:5-23:63
MERGED from [com.android.support:support-core-ui:25.3.1] /home/jpereira/Projetos Android/android-BluetoothChat/Application/build/intermediates/exploded-aar/com.android.support/support-core-ui/25.3.1/AndroidManifest.xml:21:5-23:58
MERGED from [com.android.support:support-core-utils:25.3.1] /home/jpereira/Projetos Android/android-BluetoothChat/Application/build/intermediates/exploded-aar/com.android.support/support-core-utils/25.3.1/AndroidManifest.xml:21:5-23:61
MERGED from [com.android.support:animated-vector-drawable:25.3.1] /home/jpereira/Projetos Android/android-BluetoothChat/Application/build/intermediates/exploded-aar/com.android.support/animated-vector-drawable/25.3.1/AndroidManifest.xml:20:5-44
MERGED from [com.android.support:support-vector-drawable:25.3.1] /home/jpereira/Projetos Android/android-BluetoothChat/Application/build/intermediates/exploded-aar/com.android.support/support-vector-drawable/25.3.1/AndroidManifest.xml:20:5-43
MERGED from [com.android.support:support-compat:25.3.1] /home/jpereira/Projetos Android/android-BluetoothChat/Application/build/intermediates/exploded-aar/com.android.support/support-compat/25.3.1/AndroidManifest.xml:21:5-23:58
	tools:overrideLibrary
		ADDED from [com.android.support:appcompat-v7:25.3.1] /home/jpereira/Projetos Android/android-BluetoothChat/Application/build/intermediates/exploded-aar/com.android.support/appcompat-v7/25.3.1/AndroidManifest.xml:23:9-75
	android:targetSdkVersion
		INJECTED from /home/jpereira/Projetos Android/android-BluetoothChat/Application/src/main/AndroidManifest.xml
		INJECTED from /home/jpereira/Projetos Android/android-BluetoothChat/Application/src/main/AndroidManifest.xml
	android:minSdkVersion
		INJECTED from /home/jpereira/Projetos Android/android-BluetoothChat/Application/src/main/AndroidManifest.xml
		INJECTED from /home/jpereira/Projetos Android/android-BluetoothChat/Application/src/main/AndroidManifest.xml
meta-data#android.support.VERSION
ADDED from [com.android.support:gridlayout-v7:25.3.1] /home/jpereira/Projetos Android/android-BluetoothChat/Application/build/intermediates/exploded-aar/com.android.support/gridlayout-v7/25.3.1/AndroidManifest.xml:22:5-24:34
MERGED from [com.android.support:cardview-v7:25.3.1] /home/jpereira/Projetos Android/android-BluetoothChat/Application/build/intermediates/exploded-aar/com.android.support/cardview-v7/25.3.1/AndroidManifest.xml:22:5-24:34
MERGED from [com.android.support:appcompat-v7:25.3.1] /home/jpereira/Projetos Android/android-BluetoothChat/Application/build/intermediates/exploded-aar/com.android.support/appcompat-v7/25.3.1/AndroidManifest.xml:25:5-27:34
MERGED from [com.android.support:support-v4:25.3.1] /home/jpereira/Projetos Android/android-BluetoothChat/Application/build/intermediates/exploded-aar/com.android.support/support-v4/25.3.1/AndroidManifest.xml:25:5-27:34
MERGED from [com.android.support:support-fragment:25.3.1] /home/jpereira/Projetos Android/android-BluetoothChat/Application/build/intermediates/exploded-aar/com.android.support/support-fragment/25.3.1/AndroidManifest.xml:25:5-27:34
MERGED from [com.android.support:support-media-compat:25.3.1] /home/jpereira/Projetos Android/android-BluetoothChat/Application/build/intermediates/exploded-aar/com.android.support/support-media-compat/25.3.1/AndroidManifest.xml:25:5-27:34
MERGED from [com.android.support:support-core-ui:25.3.1] /home/jpereira/Projetos Android/android-BluetoothChat/Application/build/intermediates/exploded-aar/com.android.support/support-core-ui/25.3.1/AndroidManifest.xml:25:5-27:34
MERGED from [com.android.support:support-core-utils:25.3.1] /home/jpereira/Projetos Android/android-BluetoothChat/Application/build/intermediates/exploded-aar/com.android.support/support-core-utils/25.3.1/AndroidManifest.xml:25:5-27:34
MERGED from [com.android.support:animated-vector-drawable:25.3.1] /home/jpereira/Projetos Android/android-BluetoothChat/Application/build/intermediates/exploded-aar/com.android.support/animated-vector-drawable/25.3.1/AndroidManifest.xml:22:5-24:34
MERGED from [com.android.support:support-vector-drawable:25.3.1] /home/jpereira/Projetos Android/android-BluetoothChat/Application/build/intermediates/exploded-aar/com.android.support/support-vector-drawable/25.3.1/AndroidManifest.xml:22:5-24:34
MERGED from [com.android.support:support-compat:25.3.1] /home/jpereira/Projetos Android/android-BluetoothChat/Application/build/intermediates/exploded-aar/com.android.support/support-compat/25.3.1/AndroidManifest.xml:25:5-27:34
	android:value
		ADDED from [com.android.support:gridlayout-v7:25.3.1] /home/jpereira/Projetos Android/android-BluetoothChat/Application/build/intermediates/exploded-aar/com.android.support/gridlayout-v7/25.3.1/AndroidManifest.xml:24:9-31
	android:name
		ADDED from [com.android.support:gridlayout-v7:25.3.1] /home/jpereira/Projetos Android/android-BluetoothChat/Application/build/intermediates/exploded-aar/com.android.support/gridlayout-v7/25.3.1/AndroidManifest.xml:23:9-47
